{
  "name": "shrr",
  "author": "madflow",
  "author_email": "madflow@web.de",
  "version": "0.1.3_dev",
  "description": "Share files via HTTP",
  "license": "MIT",
  "keywords": "files, sharing, web server",
  "url": "https://gitlab.com/madflow/shrr"
}
